digraph G {
	edge [dir=none];

	I2448 [shape=box,style="rounded",label=<
		<table border="0" cellborder="0">
			<tr><td>Francis Frederick of_Saxe-Coburg  &#9794;</td></tr><hr/>
			<tr><td align="left">&loz; : 1750 </td></tr>
			<tr><td align="left">&dagger; : 1806 </td></tr>
		</table>>];
	I2614 [shape=box,style="rounded",label=<
		<table border="0" cellborder="0">
			<tr><td>Augusta Reuss-Ebersdorf  &#9792;</td></tr><hr/>
			<tr><td align="left">&loz; : 1757 </td></tr>
			<tr><td align="left">&dagger; : 1831 </td></tr>
		</table>>];
	I139 [shape=box,style="rounded,filled",label=<
		<table border="0" cellborder="0">
			<tr><td>Ernest_I of_Saxe-Coburg- Saalfeld  &#9794;</td></tr><hr/>
			<tr><td align="left">&loz; : 1784 </td></tr>
			<tr><td align="left">&dagger; : 29 janv. 1844 </td></tr>
		</table>>];
	I1696 [shape=box,style="rounded",label=<
		<table border="0" cellborder="0">
			<tr><td>Leopold_I George of_Saxe-Coburg  &#9794;</td></tr><hr/>
			<tr><td align="left">&loz; : 16 d\'{e}c. 1790 </td></tr>
			<tr><td align="left">&dagger; : 10 d\'{e}c. 1865 </td></tr>
		</table>>];
	I2974 [shape=box,style="rounded",label=<
		<table border="0" cellborder="0">
			<tr><td>Sophie  &#9792;</td></tr>
		</table>>];
	I205 [shape=box,style="rounded",label=<
		<table border="0" cellborder="0">
			<tr><td>Ferdinand  &#9794;</td></tr><hr/>
			<tr><td align="left">&loz; : 1785 </td></tr>
			<tr><td align="left">&dagger; : 1851 </td></tr>
		</table>>];
	I2975 [shape=box,style="rounded",label=<
		<table border="0" cellborder="0">
			<tr><td>Julie  &#9792;</td></tr>
		</table>>];
	I138 [shape=box,style="rounded",label=<
		<table border="0" cellborder="0">
			<tr><td>Victoria Mary Louisa  &#9792;</td></tr><hr/>
			<tr><td align="left">&loz; : 17 ao\^{u}t 1786 </td></tr>
			<tr><td align="left">&dagger; : 16 mars 1861 Frogmore House</td></tr>
		</table>>];
	I2973 [shape=box,style="rounded",label=<
		<table border="0" cellborder="0">
			<tr><td>Antoinette  &#9792;</td></tr>
		</table>>];
	I140 [shape=box,style="rounded,filled",label=<
		<table border="0" cellborder="0">
			<tr><td>Louise of_Saxe-Coburg- Altenburg  &#9792;</td></tr><hr/>
			<tr><td align="left">&loz; : 1800 </td></tr>
			<tr><td align="left">&dagger; : 1831 </td></tr>
		</table>>];
	I1737 [shape=box,style="rounded",label=<
		<table border="0" cellborder="0">
			<tr><td>Ernest_II of_Saxe-Coburg- Saalfeld  &#9794;</td></tr><hr/>
			<tr><td align="left">&loz; : 1818 </td></tr>
			<tr><td align="left">&dagger; : 1893 </td></tr>
		</table>>];
	I2 [shape=box,style="rounded",label=<
		<table border="0" cellborder="0">
			<tr><td>Albert Augustus Charles  &#9794;</td></tr><hr/>
			<tr><td align="left">&loz; : 26 ao\^{u}t 1819 </td></tr>
			<tr><td align="left">&dagger; : 14 d\'{e}c. 1861 </td></tr>
		</table>>];

	F1147 [shape=ellipse,label=<
		<table border="0" cellborder="0">
			<tr><td>&infin; 1777</td></tr>
			<tr><td></td></tr>
		</table>>
];
	F43 [shape=ellipse,label=<
		<table border="0" cellborder="0">
			<tr><td>&infin; 31 juil. 1817</td></tr>
			<tr><td></td></tr>
		</table>>
];

	{rank=same;I2448;I2614;};
	{rank=same;F1147;};
	{rank=same;I139;I1696;I2974;I205;I2975;I138;I2973;I140};
	{rank=same;F43};
	{rank=same;I1737;I2;};

	I2448 -> F1147;
	I2614 -> F1147;
	F1147 -> I139;
	F1147 -> I1696;
	F1147 -> I2974;
	F1147 -> I205;
	F1147 -> I2975;
	F1147 -> I138;
	F1147 -> I2973;
	I139 -> F43;
	I140 -> F43;
	F43 -> I1737;
	F43 -> I2;
}