digraph G {
	edge [dir=none];

	I1530 [shape=box,style="rounded",label=<
		<table border="0" cellborder="0">
			<tr><td>Richard_I the_Fearless of_Normandy  &#9794;</td></tr><hr/>
			<tr><td align="left">&dagger; : 0996 </td></tr>
		</table>>];
	I1531 [shape=box,style="rounded",label=<
		<table border="0" cellborder="0">
			<tr><td>Gunnor of_Denmark  &#9792;</td></tr>
		</table>>];
	I1532 [shape=box,style="rounded",label=<
		<table border="0" cellborder="0">
			<tr><td>Emma of_Normandy  &#9792;</td></tr><hr/>
			<tr><td align="left">&dagger; : 1052 </td></tr>
		</table>>];
	I1527 [shape=box,style="rounded,filled",label=<
		<table border="0" cellborder="0">
			<tr><td>Richard_II of_Normandy  &#9794;</td></tr><hr/>
			<tr><td align="left">&dagger; : 1026 </td></tr>
		</table>>];
	I1528 [shape=box,style="rounded,filled",label=<
		<table border="0" cellborder="0">
			<tr><td>Judith of_Brittany  &#9792;</td></tr>
		</table>>];
	I1525 [shape=box,style="rounded",label=<
		<table border="0" cellborder="0">
			<tr><td>Robert the_Devil  &#9794;</td></tr><hr/>
			<tr><td align="left">&dagger; : 1035 </td></tr>
		</table>>];
	I1529 [shape=box,style="rounded",label=<
		<table border="0" cellborder="0">
			<tr><td>Richard_III of_Normandy  &#9794;</td></tr><hr/>
			<tr><td align="left">&dagger; : 1028 </td></tr>
		</table>>];

	F574 [shape=ellipse,label=" "];
	F573 [shape=ellipse,label=" "];

	{rank=same;I1530;I1531;};
	{rank=same;F574;};
	{rank=same;I1532;I1527;I1528};
	{rank=same;F573};
	{rank=same;I1525;I1529;};

	I1530 -> F574;
	I1531 -> F574;
	F574 -> I1532;
	F574 -> I1527;
	I1527 -> F573;
	I1528 -> F573;
	F573 -> I1525;
	F573 -> I1529;
}