digraph G {
	edge [dir=none];

	I1630 [shape=box,style="rounded",label=<
		<table border="0" cellborder="0">
			<tr><td>Frederick_III  &#9794;</td></tr><hr/>
			<tr><td align="left">&loz; : 18 mars 1609 </td></tr>
			<tr><td align="left">&dagger; : 09 f\'{e}vr. 1670 </td></tr>
		</table>>];
	I1631 [shape=box,style="rounded",label=<
		<table border="0" cellborder="0">
			<tr><td>Sophia Amelia  &#9792;</td></tr><hr/>
			<tr><td align="left">&loz; : 24 mars 1628 </td></tr>
			<tr><td align="left">&dagger; : 20 f\'{e}vr. 1685 </td></tr>
		</table>>];
	I1625 [shape=box,style="rounded,filled",label=<
		<table border="0" cellborder="0">
			<tr><td>Christian_V  &#9794;</td></tr><hr/>
			<tr><td align="left">&loz; : 15 avr. 1646 </td></tr>
			<tr><td align="left">&dagger; : 25 ao\^{u}t 1699 </td></tr>
		</table>>];
	I2856 [shape=box,style="rounded",label=<
		<table border="0" cellborder="0">
			<tr><td>Anne Sophia  &#9792;</td></tr><hr/>
			<tr><td align="left">&loz; : 1647 </td></tr>
			<tr><td align="left">&dagger; : 1717 </td></tr>
		</table>>];
	I2857 [shape=box,style="rounded",label=<
		<table border="0" cellborder="0">
			<tr><td>Frederica  &#9792;</td></tr><hr/>
			<tr><td align="left">&loz; : 1649 </td></tr>
			<tr><td align="left">&dagger; : 1704 </td></tr>
		</table>>];
	I692 [shape=box,style="rounded",label=<
		<table border="0" cellborder="0">
			<tr><td>George of_Denmark  &#9794;</td></tr><hr/>
			<tr><td align="left">&loz; : 02 avr. 1653 </td></tr>
			<tr><td align="left">&dagger; : 28 oct. 1708 Kensington</td></tr>
		</table>>];
	I2858 [shape=box,style="rounded",label=<
		<table border="0" cellborder="0">
			<tr><td>Ulrica  &#9792;</td></tr><hr/>
			<tr><td align="left">&loz; : 1656 </td></tr>
			<tr><td align="left">&dagger; : 1693 </td></tr>
		</table>>];
	I1626 [shape=box,style="rounded,filled",label=<
		<table border="0" cellborder="0">
			<tr><td>Charlotte Amelia  &#9792;</td></tr><hr/>
			<tr><td align="left">&loz; : 27 avr. 1650 </td></tr>
			<tr><td align="left">&dagger; : 27 mars 1714 </td></tr>
		</table>>];
	I1622 [shape=box,style="rounded",label=<
		<table border="0" cellborder="0">
			<tr><td>Frederick_IV  &#9794;</td></tr><hr/>
			<tr><td align="left">&loz; : 21 oct. 1671 </td></tr>
			<tr><td align="left">&dagger; : 12 oct. 1730 </td></tr>
		</table>>];
	I2854 [shape=box,style="rounded",label=<
		<table border="0" cellborder="0">
			<tr><td>Charles  &#9794;</td></tr><hr/>
			<tr><td align="left">&loz; : 1680 </td></tr>
			<tr><td align="left">&dagger; : 1729 </td></tr>
		</table>>];
	I2855 [shape=box,style="rounded",label=<
		<table border="0" cellborder="0">
			<tr><td>William  &#9794;</td></tr><hr/>
			<tr><td align="left">&loz; : 1687 </td></tr>
			<tr><td align="left">&dagger; : 1705 </td></tr>
		</table>>];

	F637 [shape=ellipse,label=<
		<table border="0" cellborder="0">
			<tr><td>&infin; 01 oct. 1643</td></tr>
			<tr><td></td></tr>
		</table>>
];
	F634 [shape=ellipse,label=<
		<table border="0" cellborder="0">
			<tr><td>&infin; 25 juin 1667</td></tr>
			<tr><td></td></tr>
		</table>>
];

	{rank=same;I1630;I1631;};
	{rank=same;F637;};
	{rank=same;I1625;I2856;I2857;I692;I2858;I1626};
	{rank=same;F634};
	{rank=same;I1622;I2854;I2855;};

	I1630 -> F637;
	I1631 -> F637;
	F637 -> I1625;
	F637 -> I2856;
	F637 -> I2857;
	F637 -> I692;
	F637 -> I2858;
	I1625 -> F634;
	I1626 -> F634;
	F634 -> I1622;
	F634 -> I2854;
	F634 -> I2855;
}