digraph G {
	edge [dir=none];

	I1792 [shape=box,style="rounded",label=<
		<table border="0" cellborder="0">
			<tr><td>Edward the_Elder  &#9794;</td></tr><hr/>
			<tr><td align="left">&dagger; : 0924 </td></tr>
		</table>>];
	I1793 [shape=box,style="rounded",label=<
		<table border="0" cellborder="0">
			<tr><td>Edgiva  &#9792;</td></tr>
		</table>>];
	I1796 [shape=box,style="rounded",label=<
		<table border="0" cellborder="0">
			<tr><td>Edgiva  &#9792;</td></tr>
		</table>>];
	I1795 [shape=box,style="rounded",label=<
		<table border="0" cellborder="0">
			<tr><td>Edburh  &#9792;</td></tr>
		</table>>];
	I1794 [shape=box,style="rounded",label=<
		<table border="0" cellborder="0">
			<tr><td>Edred  &#9794;</td></tr>
		</table>>];
	I1786 [shape=box,style="rounded,filled",label=<
		<table border="0" cellborder="0">
			<tr><td>Edmund_I the_Elder  &#9794;</td></tr><hr/>
			<tr><td align="left">&loz; : 0939 </td></tr>
			<tr><td align="left">&dagger; : 0946 </td></tr>
		</table>>];
	I1787 [shape=box,style="rounded,filled",label=<
		<table border="0" cellborder="0">
			<tr><td>St._Elgiva  &#9792;</td></tr>
		</table>>];
	I1779 [shape=box,style="rounded",label=<
		<table border="0" cellborder="0">
			<tr><td>Edgar the_Peaceful  &#9794;</td></tr><hr/>
			<tr><td align="left">&loz; : 0944 </td></tr>
			<tr><td align="left">&dagger; : 0975 </td></tr>
		</table>>];
	I1788 [shape=box,style="rounded",label=<
		<table border="0" cellborder="0">
			<tr><td>Edwy  &#9794;</td></tr>
		</table>>];

	F718 [shape=ellipse,label=" "];
	F714 [shape=ellipse,label=" "];

	{rank=same;I1792;I1793;};
	{rank=same;F718;};
	{rank=same;I1796;I1795;I1794;I1786;I1787};
	{rank=same;F714};
	{rank=same;I1779;I1788;};

	I1792 -> F718;
	I1793 -> F718;
	F718 -> I1796;
	F718 -> I1795;
	F718 -> I1794;
	F718 -> I1786;
	I1786 -> F714;
	I1787 -> F714;
	F714 -> I1779;
	F714 -> I1788;
}