digraph G {
	edge [dir=none];

	I1966 [shape=box,style="rounded",label=<
		<table border="0" cellborder="0">
			<tr><td>Ethelwulf  &#9794;</td></tr><hr/>
			<tr><td align="left">&dagger; : 0858 </td></tr>
		</table>>];
	I1967 [shape=box,style="rounded",label=<
		<table border="0" cellborder="0">
			<tr><td>Osburh  &#9792;</td></tr><hr/>
			<tr><td align="left">&dagger; : 0846 </td></tr>
		</table>>];
	I1981 [shape=box,style="rounded",label=<
		<table border="0" cellborder="0">
			<tr><td>Ethelred Mucel &#9794;</td></tr>
		</table>>];
	I1971 [shape=box,style="rounded",label=<
		<table border="0" cellborder="0">
			<tr><td>Ethelbert  &#9794;</td></tr><hr/>
			<tr><td align="left">&dagger; : 0866 </td></tr>
		</table>>];
	I1972 [shape=box,style="rounded",label=<
		<table border="0" cellborder="0">
			<tr><td>Ethelred_I  &#9794;</td></tr><hr/>
			<tr><td align="left">&dagger; : 0871 </td></tr>
		</table>>];
	I1968 [shape=box,style="rounded",label=<
		<table border="0" cellborder="0">
			<tr><td>Athelstan  &#9794;</td></tr>
		</table>>];
	I1969 [shape=box,style="rounded",label=<
		<table border="0" cellborder="0">
			<tr><td>Ethelbald  &#9794;</td></tr><hr/>
			<tr><td align="left">&dagger; : 0860 </td></tr>
		</table>>];
	I1964 [shape=box,style="rounded,filled",label=<
		<table border="0" cellborder="0">
			<tr><td>Alfred the_Great  &#9794;</td></tr><hr/>
			<tr><td align="left">&loz; : 0849 Wantage</td></tr>
			<tr><td align="left">&dagger; : 0899 </td></tr>
		</table>>];
	I1977 [shape=box,style="rounded",label=<
		<table border="0" cellborder="0">
			<tr><td>Ethelswith  &#9792;</td></tr><hr/>
			<tr><td align="left">&dagger; : 0888 </td></tr>
		</table>>];
	I1965 [shape=box,style="rounded,filled",label=<
		<table border="0" cellborder="0">
			<tr><td>Ealhswith  &#9792;</td></tr><hr/>
			<tr><td align="left">&dagger; : 0905 </td></tr>
		</table>>];
	I1792 [shape=box,style="rounded",label=<
		<table border="0" cellborder="0">
			<tr><td>Edward the_Elder  &#9794;</td></tr><hr/>
			<tr><td align="left">&dagger; : 0924 </td></tr>
		</table>>];
	I1987 [shape=box,style="rounded",label=<
		<table border="0" cellborder="0">
			<tr><td>Elfrida  &#9792;</td></tr>
		</table>>];
	I1985 [shape=box,style="rounded",label=<
		<table border="0" cellborder="0">
			<tr><td>Ethelfleda  &#9792;</td></tr><hr/>
			<tr><td align="left">&dagger; : 0918 </td></tr>
		</table>>];
	I1986 [shape=box,style="rounded",label=<
		<table border="0" cellborder="0">
			<tr><td>Ethelgiva of_Shaftesbury  &#9792;</td></tr>
		</table>>];
	I1982 [shape=box,style="rounded",label=<
		<table border="0" cellborder="0">
			<tr><td>Ethelwerd  &#9794;</td></tr><hr/>
			<tr><td align="left">&dagger; : 0922 </td></tr>
		</table>>];

	F835 [shape=ellipse,label=" "];
	F834 [shape=ellipse,label=" "];

	{rank=same;I1966;I1967;I1981;};
	{rank=same;F835;};
	{rank=same;I1971;I1972;I1968;I1969;I1964;I1977;I1965};
	{rank=same;F834};
	{rank=same;I1792;I1987;I1985;I1986;I1982;};

	I1966 -> F835;
	I1967 -> F835;
	F835 -> I1971;
	F835 -> I1972;
	F835 -> I1968;
	F835 -> I1969;
	F835 -> I1964;
	F835 -> I1977;
	I1964 -> F834;
	I1965 -> F834;
	F834 -> I1792;
	F834 -> I1987;
	F834 -> I1985;
	F834 -> I1986;
	F834 -> I1982;
}