digraph G {
	edge [dir=none];

	I1279 [shape=box,style="rounded",label=<
		<table border="0" cellborder="0">
			<tr><td>Edmund of_Woodstock  &#9794;</td></tr><hr/>
			<tr><td align="left">&loz; : 05 ao\^{u}t 1301 </td></tr>
			<tr><td align="left">&dagger; : 19 mars 1330 </td></tr>
		</table>>];
	I1505 [shape=box,style="rounded",label=<
		<table border="0" cellborder="0">
			<tr><td>Margaret of_Liddell Wake &#9792;</td></tr><hr/>
			<tr><td align="left">&dagger; : 29 sept. 1349 </td></tr>
		</table>>];
	I2058 [shape=box,style="rounded,filled",label=<
		<table border="0" cellborder="0">
			<tr><td>Thomas Holland &#9794;</td></tr>
		</table>>];
	I1410 [shape=box,style="rounded,filled",label=<
		<table border="0" cellborder="0">
			<tr><td>Joan  &#9792;</td></tr><hr/>
			<tr><td align="left">&loz; : 29 sept. 1328 </td></tr>
			<tr><td align="left">&dagger; : 08 ao\^{u}t 1385 Wallingford</td></tr>
		</table>>];
	I1595 [shape=box,style="rounded",label=<
		<table border="0" cellborder="0">
			<tr><td>Margaret Holland &#9792;</td></tr><hr/>
			<tr><td align="left">&dagger; : 31 d\'{e}c. 1439 </td></tr>
		</table>>];

	F564 [shape=ellipse,label=<
		<table border="0" cellborder="0">
			<tr><td>&infin; </td></tr>
			<tr><td></td></tr>
		</table>>
];
	F901 [shape=ellipse,label=" "];

	{rank=same;I1279;I1505;};
	{rank=same;F564;};
	{rank=same;I2058;I1410;};
	{rank=same;F901};
	{rank=same;I1595;};

	I1279 -> F564;
	I1505 -> F564;
	F564 -> I1410;
	I2058 -> F901;
	I1410 -> F901;
	F901 -> I1595;
}