digraph G {
	edge [dir=none];

	I2274 [shape=box,style="rounded,filled",label=<
		<table border="0" cellborder="0">
			<tr><td>Joachim Frederick of_Brandenburg  &#9794;</td></tr>
		</table>>];
	I2549 [shape=box,style="rounded,filled",label=<
		<table border="0" cellborder="0">
			<tr><td>Catherine of_Brandenburg -Kustrin  &#9792;</td></tr>
		</table>>];
	I1628 [shape=box,style="rounded",label=<
		<table border="0" cellborder="0">
			<tr><td>Anne Catherine  &#9792;</td></tr><hr/>
			<tr><td align="left">&loz; : 26 juin 1575 </td></tr>
			<tr><td align="left">&dagger; : 29 mars 1612 </td></tr>
		</table>>];

	F1054 [shape=ellipse,label=" "];

	{rank=same;I2274;I2549};
	{rank=same;F1054};
	{rank=same;I1628;};

	I2274 -> F1054;
	I2549 -> F1054;
	F1054 -> I1628;
}