digraph G {
	edge [dir=none];

	I2307 [shape=box,style="rounded",label=<
		<table border="0" cellborder="0">
			<tr><td>Henry Fitzroy &#9794;</td></tr><hr/>
			<tr><td align="left">&loz; : 1663 </td></tr>
			<tr><td align="left">&dagger; : 1690 </td></tr>
		</table>>];
	I2308 [shape=box,style="rounded",label=<
		<table border="0" cellborder="0">
			<tr><td>Isabella Bennett &#9792;</td></tr><hr/>
			<tr><td align="left">&dagger; : 1723 </td></tr>
		</table>>];
	I2305 [shape=box,style="rounded,filled",label=<
		<table border="0" cellborder="0">
			<tr><td>Charles Fitzroy &#9794;</td></tr><hr/>
			<tr><td align="left">&loz; : 1683 </td></tr>
			<tr><td align="left">&dagger; : 1757 </td></tr>
		</table>>];
	I2306 [shape=box,style="rounded,filled",label=<
		<table border="0" cellborder="0">
			<tr><td>Henrietta Somerset &#9792;</td></tr><hr/>
			<tr><td align="left">&dagger; : 1726 </td></tr>
		</table>>];
	I2304 [shape=box,style="rounded",label=<
		<table border="0" cellborder="0">
			<tr><td>Isabella  &#9792;</td></tr><hr/>
			<tr><td align="left">&loz; : 1726 </td></tr>
			<tr><td align="left">&dagger; : 1782 </td></tr>
		</table>>];

	F1077 [shape=ellipse,label=" "];
	F1076 [shape=ellipse,label=" "];

	{rank=same;I2307;I2308;};
	{rank=same;F1077;};
	{rank=same;I2305;I2306};
	{rank=same;F1076};
	{rank=same;I2304;};

	I2307 -> F1077;
	I2308 -> F1077;
	F1077 -> I2305;
	I2305 -> F1076;
	I2306 -> F1076;
	F1076 -> I2304;
}