digraph G {
	edge [dir=none];

	I2923 [shape=box,style="rounded",label=<
		<table border="0" cellborder="0">
			<tr><td>Ivan Rayevski &#9794;</td></tr>
		</table>>];
	I2663 [shape=box,style="rounded,filled",label=<
		<table border="0" cellborder="0">
			<tr><td>Leonti Leontiev &#9794;</td></tr>
		</table>>];
	I2664 [shape=box,style="rounded,filled",label=<
		<table border="0" cellborder="0">
			<tr><td>Praskovia Rayevska &#9792;</td></tr><hr/>
			<tr><td align="left">&dagger; : 1641 </td></tr>
		</table>>];
	I2662 [shape=box,style="rounded",label=<
		<table border="0" cellborder="0">
			<tr><td>Anne Leontiev &#9792;</td></tr><hr/>
			<tr><td align="left">&dagger; : 1706 </td></tr>
		</table>>];

	F1262 [shape=ellipse,label=" "];

	{rank=same;I2923;};
	{rank=same;I2663;I2664};
	{rank=same;F1262};
	{rank=same;I2662;};

	I2663 -> F1262;
	I2664 -> F1262;
	F1262 -> I2662;
}