digraph G {
	edge [dir=none];

	I484 [shape=box,style="rounded",label=<
		<table border="0" cellborder="0">
			<tr><td>Ludwig of_Wurttemberg  &#9794;</td></tr>
		</table>>];
	I485 [shape=box,style="rounded",label=<
		<table border="0" cellborder="0">
			<tr><td>Henriette  &#9792;</td></tr>
		</table>>];
	I303 [shape=box,style="rounded,filled",label=<
		<table border="0" cellborder="0">
			<tr><td>Alexander of_Wurttemberg  &#9794;</td></tr><hr/>
			<tr><td align="left">&loz; : 1804 </td></tr>
			<tr><td align="left">&dagger; : 1885 </td></tr>
		</table>>];
	I595 [shape=box,style="rounded",label=<
		<table border="0" cellborder="0">
			<tr><td>Maria  &#9792;</td></tr>
		</table>>];
	I356 [shape=box,style="rounded",label=<
		<table border="0" cellborder="0">
			<tr><td>Amalie of_Wurttemberg  &#9792;</td></tr><hr/>
			<tr><td align="left">&dagger; : 1848 </td></tr>
		</table>>];
	I304 [shape=box,style="rounded,filled",label=<
		<table border="0" cellborder="0">
			<tr><td>Claudine  &#9792;</td></tr><hr/>
			<tr><td align="left">&loz; : 1814 </td></tr>
			<tr><td align="left">&dagger; : 1841 </td></tr>
		</table>>];
	I305 [shape=box,style="rounded",label=<
		<table border="0" cellborder="0">
			<tr><td>Claudine  &#9792;</td></tr><hr/>
			<tr><td align="left">&loz; : 1836 </td></tr>
			<tr><td align="left">&dagger; : 1894 </td></tr>
		</table>>];
	I137 [shape=box,style="rounded",label=<
		<table border="0" cellborder="0">
			<tr><td>Francis  &#9794;</td></tr><hr/>
			<tr><td align="left">&loz; : 1837 </td></tr>
			<tr><td align="left">&dagger; : 1900 </td></tr>
		</table>>];
	I306 [shape=box,style="rounded",label=<
		<table border="0" cellborder="0">
			<tr><td>Amelie  &#9792;</td></tr><hr/>
			<tr><td align="left">&loz; : 1838 </td></tr>
			<tr><td align="left">&dagger; : 1893 </td></tr>
		</table>>];

	F170 [shape=ellipse,label=" "];
	F98 [shape=ellipse,label=" "];

	{rank=same;I484;I485;};
	{rank=same;F170;};
	{rank=same;I303;I595;I356;I304};
	{rank=same;F98};
	{rank=same;I305;I137;I306;};

	I484 -> F170;
	I485 -> F170;
	F170 -> I303;
	F170 -> I595;
	F170 -> I356;
	I303 -> F98;
	I304 -> F98;
	F98 -> I305;
	F98 -> I137;
	F98 -> I306;
}