digraph G {
	edge [dir=none];

	I1641 [shape=box,style="rounded",label=<
		<table border="0" cellborder="0">
			<tr><td>Charles of_Hesse-Cassel  &#9794;</td></tr><hr/>
			<tr><td align="left">&loz; : 1744 </td></tr>
			<tr><td align="left">&dagger; : 1836 </td></tr>
		</table>>];
	I1640 [shape=box,style="rounded",label=<
		<table border="0" cellborder="0">
			<tr><td>Louise  &#9792;</td></tr><hr/>
			<tr><td align="left">&loz; : 1750 </td></tr>
			<tr><td align="left">&dagger; : 1831 </td></tr>
		</table>>];
	I345 [shape=box,style="rounded,filled",label=<
		<table border="0" cellborder="0">
			<tr><td>Frederick William of_Schleswig-  &#9794;</td></tr><hr/>
			<tr><td align="left">&loz; : 1785 </td></tr>
			<tr><td align="left">&dagger; : 1831 </td></tr>
		</table>>];
	I1618 [shape=box,style="rounded",label=<
		<table border="0" cellborder="0">
			<tr><td>Marie  &#9792;</td></tr><hr/>
			<tr><td align="left">&loz; : 28 oct. 1767 </td></tr>
			<tr><td align="left">&dagger; : 21 mars 1852 </td></tr>
		</table>>];
	I346 [shape=box,style="rounded,filled",label=<
		<table border="0" cellborder="0">
			<tr><td>Louise Caroline of_Hesse-Cassel  &#9792;</td></tr><hr/>
			<tr><td align="left">&loz; : 1789 </td></tr>
			<tr><td align="left">&dagger; : 1867 </td></tr>
		</table>>];
	I225 [shape=box,style="rounded",label=<
		<table border="0" cellborder="0">
			<tr><td>Christian_IX  &#9794;</td></tr><hr/>
			<tr><td align="left">&loz; : 08 avr. 1818 </td></tr>
			<tr><td align="left">&dagger; : 29 janv. 1906 </td></tr>
		</table>>];

	F641 [shape=ellipse,label=" "];
	F108 [shape=ellipse,label=<
		<table border="0" cellborder="0">
			<tr><td>&infin; 1810</td></tr>
			<tr><td></td></tr>
		</table>>
];

	{rank=same;I1641;I1640;};
	{rank=same;F641;};
	{rank=same;I345;I1618;I346;};
	{rank=same;F108};
	{rank=same;I225;};

	I1641 -> F641;
	I1640 -> F641;
	F641 -> I1618;
	F641 -> I346;
	I345 -> F108;
	I346 -> F108;
	F108 -> I225;
}