digraph G {
	edge [dir=none];

	I349 [shape=box,style="rounded",label=<
		<table border="0" cellborder="0">
			<tr><td>Louis_II of_Hesse and_the_Rhine  &#9794;</td></tr><hr/>
			<tr><td align="left">&loz; : 1777 </td></tr>
			<tr><td align="left">&dagger; : 1848 </td></tr>
		</table>>];
	I350 [shape=box,style="rounded",label=<
		<table border="0" cellborder="0">
			<tr><td>Wilhelmina of_Baden  &#9792;</td></tr><hr/>
			<tr><td align="left">&loz; : 1788 </td></tr>
			<tr><td align="left">&dagger; : 1836 </td></tr>
		</table>>];
	I2622 [shape=box,style="rounded",label=<
		<table border="0" cellborder="0">
			<tr><td>William of_Prussia  &#9794;</td></tr>
		</table>>];
	I493 [shape=box,style="rounded",label=<
		<table border="0" cellborder="0">
			<tr><td>Louis_III of_Hesse  &#9794;</td></tr><hr/>
			<tr><td align="left">&loz; : 1806 </td></tr>
			<tr><td align="left">&dagger; : 1877 </td></tr>
		</table>>];
	I357 [shape=box,style="rounded,filled",label=<
		<table border="0" cellborder="0">
			<tr><td>Charles of_Hesse  &#9794;</td></tr><hr/>
			<tr><td align="left">&loz; : 1809 </td></tr>
			<tr><td align="left">&dagger; : 1877 </td></tr>
		</table>>];
	I347 [shape=box,style="rounded",label=<
		<table border="0" cellborder="0">
			<tr><td>Alexander of_Hesse and_the_Rhine  &#9794;</td></tr><hr/>
			<tr><td align="left">&loz; : 1823 </td></tr>
			<tr><td align="left">&dagger; : 1888 </td></tr>
		</table>>];
	I45 [shape=box,style="rounded",label=<
		<table border="0" cellborder="0">
			<tr><td>Marie of_Hesse- Darmstadt  &#9792;</td></tr><hr/>
			<tr><td align="left">&loz; : 1824 </td></tr>
			<tr><td align="left">&dagger; : 1880 </td></tr>
		</table>>];
	I358 [shape=box,style="rounded,filled",label=<
		<table border="0" cellborder="0">
			<tr><td>Elizabeth of_Prussia  &#9792;</td></tr><hr/>
			<tr><td align="left">&loz; : 1815 </td></tr>
			<tr><td align="left">&dagger; : 1885 </td></tr>
		</table>>];
	I498 [shape=box,style="rounded",label=<
		<table border="0" cellborder="0">
			<tr><td>William  &#9794;</td></tr><hr/>
			<tr><td align="left">&loz; :  </td></tr>
			<tr><td align="left">&dagger; : 1900 </td></tr>
		</table>>];
	I22 [shape=box,style="rounded",label=<
		<table border="0" cellborder="0">
			<tr><td>Louis_IV of_Hesse  &#9794;</td></tr><hr/>
			<tr><td align="left">&loz; : 1837 </td></tr>
			<tr><td align="left">&dagger; : 1892 </td></tr>
		</table>>];
	I497 [shape=box,style="rounded",label=<
		<table border="0" cellborder="0">
			<tr><td>Henry  &#9794;</td></tr><hr/>
			<tr><td align="left">&loz; : 1838 </td></tr>
			<tr><td align="left">&dagger; : 1900 </td></tr>
		</table>>];
	I499 [shape=box,style="rounded",label=<
		<table border="0" cellborder="0">
			<tr><td>Anna  &#9792;</td></tr><hr/>
			<tr><td align="left">&loz; : 1843 </td></tr>
			<tr><td align="left">&dagger; : 1865 </td></tr>
		</table>>];

	F110 [shape=ellipse,label=<
		<table border="0" cellborder="0">
			<tr><td>&infin; 1804</td></tr>
			<tr><td></td></tr>
		</table>>
];
	F114 [shape=ellipse,label=<
		<table border="0" cellborder="0">
			<tr><td>&infin; 1836</td></tr>
			<tr><td></td></tr>
		</table>>
];

	{rank=same;I349;I350;I2622;};
	{rank=same;F110;};
	{rank=same;I493;I357;I347;I45;I358};
	{rank=same;F114};
	{rank=same;I498;I22;I497;I499;};

	I349 -> F110;
	I350 -> F110;
	F110 -> I493;
	F110 -> I357;
	F110 -> I347;
	F110 -> I45;
	I357 -> F114;
	I358 -> F114;
	F114 -> I498;
	F114 -> I22;
	F114 -> I497;
	F114 -> I499;
}