digraph G {
	edge [dir=none];

	I788 [shape=box,style="rounded",label=<
		<table border="0" cellborder="0">
			<tr><td>  &#9794;</td></tr><hr/>
			<tr><td align="left">&dagger; : 1885 </td></tr>
		</table>>];
	I787 [shape=box,style="rounded",label=<
		<table border="0" cellborder="0">
			<tr><td>Louisa Jane Russell &#9792;</td></tr><hr/>
			<tr><td align="left">&dagger; : 1905 </td></tr>
		</table>>];
	I785 [shape=box,style="rounded",label=<
		<table border="0" cellborder="0">
			<tr><td>  &#9794;</td></tr><hr/>
			<tr><td align="left">&dagger; : 1870 </td></tr>
		</table>>];
	I786 [shape=box,style="rounded",label=<
		<table border="0" cellborder="0">
			<tr><td>Anne Gore &#9792;</td></tr><hr/>
			<tr><td align="left">&dagger; : 1877 </td></tr>
		</table>>];
	I386 [shape=box,style="rounded,filled",label=<
		<table border="0" cellborder="0">
			<tr><td>James Hamilton &#9794;</td></tr><hr/>
			<tr><td align="left">&loz; : 1838 </td></tr>
			<tr><td align="left">&dagger; : 1913 </td></tr>
		</table>>];
	I387 [shape=box,style="rounded,filled",label=<
		<table border="0" cellborder="0">
			<tr><td>Mary Anna Curzon-Howe &#9792;</td></tr><hr/>
			<tr><td align="left">&loz; : 1848 </td></tr>
			<tr><td align="left">&dagger; : 1929 </td></tr>
		</table>>];
	I384 [shape=box,style="rounded",label=<
		<table border="0" cellborder="0">
			<tr><td>James Albert Edward Hamilton &#9794;</td></tr><hr/>
			<tr><td align="left">&loz; : 1869 </td></tr>
			<tr><td align="left">&dagger; : 1953 </td></tr>
		</table>>];

	F288 [shape=ellipse,label=" "];
	F287 [shape=ellipse,label=" "];
	F128 [shape=ellipse,label=" "];

	{rank=same;I788;I787;I785;I786;};
	{rank=same;F288;F287;};
	{rank=same;I386;I387;};
	{rank=same;F128};
	{rank=same;I384;};

	I788 -> F288;
	I787 -> F288;
	F288 -> I386;
	I785 -> F287;
	I786 -> F287;
	F287 -> I387;
	I386 -> F128;
	I387 -> F128;
	F128 -> I384;
}