digraph G {
	edge [dir=none];

	I783 [shape=box,style="rounded",label=<
		<table border="0" cellborder="0">
			<tr><td>Henry Baring &#9794;</td></tr><hr/>
			<tr><td align="left">&dagger; : 1848 </td></tr>
		</table>>];
	I784 [shape=box,style="rounded",label=<
		<table border="0" cellborder="0">
			<tr><td>Cecilia Anne Windham &#9792;</td></tr><hr/>
			<tr><td align="left">&dagger; : 1874 </td></tr>
		</table>>];
	I777 [shape=box,style="rounded",label=<
		<table border="0" cellborder="0">
			<tr><td>John Crocker Bulteel &#9794;</td></tr><hr/>
			<tr><td align="left">&dagger; : 1843 </td></tr>
		</table>>];
	I778 [shape=box,style="rounded",label=<
		<table border="0" cellborder="0">
			<tr><td>Elizabeth Grey &#9792;</td></tr><hr/>
			<tr><td align="left">&dagger; : 1880 </td></tr>
		</table>>];
	I400 [shape=box,style="rounded,filled",label=<
		<table border="0" cellborder="0">
			<tr><td>Edward Charles Baring &#9794;</td></tr><hr/>
			<tr><td align="left">&loz; : 1828 </td></tr>
			<tr><td align="left">&dagger; : 1897 </td></tr>
		</table>>];
	I401 [shape=box,style="rounded,filled",label=<
		<table border="0" cellborder="0">
			<tr><td>Louisa Emily Charlotte Bulteel &#9792;</td></tr><hr/>
			<tr><td align="left">&loz; : 1839 </td></tr>
			<tr><td align="left">&dagger; : 1892 </td></tr>
		</table>>];
	I397 [shape=box,style="rounded",label=<
		<table border="0" cellborder="0">
			<tr><td>Margaret Baring &#9792;</td></tr><hr/>
			<tr><td align="left">&loz; : 1868 </td></tr>
			<tr><td align="left">&dagger; : 1906 </td></tr>
		</table>>];

	F286 [shape=ellipse,label=" "];
	F283 [shape=ellipse,label=" "];
	F135 [shape=ellipse,label=" "];

	{rank=same;I783;I784;I777;I778;};
	{rank=same;F286;F283;};
	{rank=same;I400;I401;};
	{rank=same;F135};
	{rank=same;I397;};

	I783 -> F286;
	I784 -> F286;
	F286 -> I400;
	I777 -> F283;
	I778 -> F283;
	F283 -> I401;
	I400 -> F135;
	I401 -> F135;
	F135 -> I397;
}