digraph G {
	edge [dir=none];

	I1294 [shape=box,style="rounded",label=<
		<table border="0" cellborder="0">
			<tr><td>Paul_I Romanov &#9794;</td></tr><hr/>
			<tr><td align="left">&loz; : 1754 </td></tr>
			<tr><td align="left">&dagger; : 1801 </td></tr>
		</table>>];
	I1295 [shape=box,style="rounded",label=<
		<table border="0" cellborder="0">
			<tr><td>Maria Feodorovna of_Wurttemberg  &#9792;</td></tr><hr/>
			<tr><td align="left">&loz; : 1759 </td></tr>
			<tr><td align="left">&dagger; : 1828 </td></tr>
		</table>>];
	I162 [shape=box,style="rounded",label=<
		<table border="0" cellborder="0">
			<tr><td>Frederick William_III  &#9794;</td></tr><hr/>
			<tr><td align="left">&loz; : 1770 </td></tr>
			<tr><td align="left">&dagger; : 1840 </td></tr>
		</table>>];
	I410 [shape=box,style="rounded",label=<
		<table border="0" cellborder="0">
			<tr><td>Louise of_Mecklenburg- Strelitz  &#9792;</td></tr><hr/>
			<tr><td align="left">&loz; : 1776 </td></tr>
			<tr><td align="left">&dagger; : 1810 </td></tr>
		</table>>];
	I1296 [shape=box,style="rounded",label=<
		<table border="0" cellborder="0">
			<tr><td>Alexander_I Romanov &#9794;</td></tr><hr/>
			<tr><td align="left">&loz; : 1777 </td></tr>
			<tr><td align="left">&dagger; : 1825 </td></tr>
		</table>>];
	I654 [shape=box,style="rounded",label=<
		<table border="0" cellborder="0">
			<tr><td>Anna Pavlovna  &#9792;</td></tr><hr/>
			<tr><td align="left">&loz; : 18 janv. 1795 </td></tr>
			<tr><td align="left">&dagger; : 01 mars 1865 </td></tr>
		</table>>];
	I42 [shape=box,style="rounded,filled",label=<
		<table border="0" cellborder="0">
			<tr><td>Nicholas_I Romanov &#9794;</td></tr><hr/>
			<tr><td align="left">&loz; : 1796 </td></tr>
			<tr><td align="left">&dagger; : 1855 </td></tr>
		</table>>];
	I411 [shape=box,style="rounded",label=<
		<table border="0" cellborder="0">
			<tr><td>Frederick William_IV  &#9794;</td></tr><hr/>
			<tr><td align="left">&loz; : 15 oct. 1795 </td></tr>
			<tr><td align="left">&dagger; : 02 janv. 1861 </td></tr>
		</table>>];
	I412 [shape=box,style="rounded",label=<
		<table border="0" cellborder="0">
			<tr><td>William_I of_Germany  &#9794;</td></tr><hr/>
			<tr><td align="left">&loz; : 22 mars 1797 </td></tr>
			<tr><td align="left">&dagger; : 09 mars 1888 </td></tr>
		</table>>];
	I43 [shape=box,style="rounded,filled",label=<
		<table border="0" cellborder="0">
			<tr><td>Charlotte of_Prussia  &#9792;</td></tr><hr/>
			<tr><td align="left">&loz; : 1798 </td></tr>
			<tr><td align="left">&dagger; : 1860 </td></tr>
		</table>>];
	I413 [shape=box,style="rounded",label=<
		<table border="0" cellborder="0">
			<tr><td>Frederica  &#9792;</td></tr><hr/>
			<tr><td align="left">&loz; : 1799 </td></tr>
			<tr><td align="left">&dagger; : 1800 </td></tr>
		</table>>];
	I414 [shape=box,style="rounded",label=<
		<table border="0" cellborder="0">
			<tr><td>Charles  &#9794;</td></tr><hr/>
			<tr><td align="left">&loz; : 1801 </td></tr>
			<tr><td align="left">&dagger; : 1883 </td></tr>
		</table>>];
	I2654 [shape=box,style="rounded",label=<
		<table border="0" cellborder="0">
			<tr><td>Alexandrine  &#9792;</td></tr><hr/>
			<tr><td align="left">&loz; : 1803 </td></tr>
			<tr><td align="left">&dagger; : 1892 </td></tr>
		</table>>];
	I416 [shape=box,style="rounded",label=<
		<table border="0" cellborder="0">
			<tr><td>Ferdinand  &#9794;</td></tr><hr/>
			<tr><td align="left">&loz; : 1804 </td></tr>
			<tr><td align="left">&dagger; : 1806 </td></tr>
		</table>>];
	I1029 [shape=box,style="rounded",label=<
		<table border="0" cellborder="0">
			<tr><td>Louisa of_Prussia  &#9792;</td></tr><hr/>
			<tr><td align="left">&loz; : 1808 </td></tr>
			<tr><td align="left">&dagger; : 1870 </td></tr>
		</table>>];
	I418 [shape=box,style="rounded",label=<
		<table border="0" cellborder="0">
			<tr><td>Albert of_Prussia  &#9794;</td></tr><hr/>
			<tr><td align="left">&loz; : 1809 </td></tr>
			<tr><td align="left">&dagger; : 1872 </td></tr>
		</table>>];
	I511 [shape=box,style="rounded",label=<
		<table border="0" cellborder="0">
			<tr><td>Daughter Stillborn  &#9792;</td></tr>
		</table>>];
	I44 [shape=box,style="rounded",label=<
		<table border="0" cellborder="0">
			<tr><td>Alexander_II Nicholoevich Romanov &#9794;</td></tr><hr/>
			<tr><td align="left">&loz; : 1818 </td></tr>
			<tr><td align="left">&dagger; : 13 mars 1881 </td></tr>
		</table>>];
	I353 [shape=box,style="rounded",label=<
		<table border="0" cellborder="0">
			<tr><td>Constantine Nikolaievitch of_Russia  &#9794;</td></tr><hr/>
			<tr><td align="left">&loz; : 1827 </td></tr>
			<tr><td align="left">&dagger; : 1892 </td></tr>
		</table>>];
	I2665 [shape=box,style="rounded",label=<
		<table border="0" cellborder="0">
			<tr><td>Nicholas Romanov &#9794;</td></tr><hr/>
			<tr><td align="left">&loz; : 1831 </td></tr>
			<tr><td align="left">&dagger; : 1891 </td></tr>
		</table>>];
	I2666 [shape=box,style="rounded",label=<
		<table border="0" cellborder="0">
			<tr><td>Michael Romanov &#9794;</td></tr><hr/>
			<tr><td align="left">&loz; : 1832 </td></tr>
			<tr><td align="left">&dagger; : 1909 </td></tr>
		</table>>];

	F469 [shape=ellipse,label=<
		<table border="0" cellborder="0">
			<tr><td>&infin; 1776</td></tr>
			<tr><td></td></tr>
		</table>>
];
	F145 [shape=ellipse,label=" "];
	F10 [shape=ellipse,label=<
		<table border="0" cellborder="0">
			<tr><td>&infin; 1817</td></tr>
			<tr><td></td></tr>
		</table>>
];

	{rank=same;I1294;I1295;I162;I410;};
	{rank=same;F469;F145;};
	{rank=same;I1296;I654;I42;I411;I412;I43;I413;I414;I2654;I416;I1029;I418;I511;};
	{rank=same;F10};
	{rank=same;I44;I353;I2665;I2666;};

	I1294 -> F469;
	I1295 -> F469;
	F469 -> I1296;
	F469 -> I654;
	F469 -> I42;
	I162 -> F145;
	I410 -> F145;
	F145 -> I411;
	F145 -> I412;
	F145 -> I43;
	F145 -> I413;
	F145 -> I414;
	F145 -> I2654;
	F145 -> I416;
	F145 -> I1029;
	F145 -> I418;
	F145 -> I511;
	I42 -> F10;
	I43 -> F10;
	F10 -> I44;
	F10 -> I353;
	F10 -> I2665;
	F10 -> I2666;
}