digraph G {
	edge [dir=none];

	I1291 [shape=box,style="rounded",label=<
		<table border="0" cellborder="0">
			<tr><td>John Spencer &#9794;</td></tr><hr/>
			<tr><td align="left">&loz; : 1734 </td></tr>
			<tr><td align="left">&dagger; : 1783 </td></tr>
		</table>>];
	I1292 [shape=box,style="rounded",label=<
		<table border="0" cellborder="0">
			<tr><td>Georgiana Carteret &#9792;</td></tr><hr/>
			<tr><td align="left">&dagger; : 1780 </td></tr>
		</table>>];
	I1729 [shape=box,style="rounded",label=<
		<table border="0" cellborder="0">
			<tr><td>Charles Bingham &#9794;</td></tr><hr/>
			<tr><td align="left">&loz; : 1735 </td></tr>
			<tr><td align="left">&dagger; : 1799 </td></tr>
		</table>>];
	I781 [shape=box,style="rounded,filled",label=<
		<table border="0" cellborder="0">
			<tr><td>George John Spencer &#9794;</td></tr><hr/>
			<tr><td align="left">&loz; : 1758 </td></tr>
			<tr><td align="left">&dagger; : 1834 </td></tr>
		</table>>];
	I782 [shape=box,style="rounded,filled",label=<
		<table border="0" cellborder="0">
			<tr><td>Lavinia Bingham &#9792;</td></tr><hr/>
			<tr><td align="left">&dagger; : 1831 </td></tr>
		</table>>];
	I398 [shape=box,style="rounded",label=<
		<table border="0" cellborder="0">
			<tr><td>Frederick Spencer &#9794;</td></tr><hr/>
			<tr><td align="left">&loz; : 1798 </td></tr>
			<tr><td align="left">&dagger; : 1857 </td></tr>
		</table>>];

	F467 [shape=ellipse,label=" "];
	F285 [shape=ellipse,label=" "];

	{rank=same;I1291;I1292;I1729;};
	{rank=same;F467;};
	{rank=same;I781;I782};
	{rank=same;F285};
	{rank=same;I398;};

	I1291 -> F467;
	I1292 -> F467;
	F467 -> I781;
	I781 -> F285;
	I782 -> F285;
	F285 -> I398;
}