digraph G {
	edge [dir=none];

	I785 [shape=box,style="rounded,filled",label=<
		<table border="0" cellborder="0">
			<tr><td>  &#9794;</td></tr><hr/>
			<tr><td align="left">&dagger; : 1870 </td></tr>
		</table>>];
	I786 [shape=box,style="rounded,filled",label=<
		<table border="0" cellborder="0">
			<tr><td>Anne Gore &#9792;</td></tr><hr/>
			<tr><td align="left">&dagger; : 1877 </td></tr>
		</table>>];
	I387 [shape=box,style="rounded",label=<
		<table border="0" cellborder="0">
			<tr><td>Mary Anna Curzon-Howe &#9792;</td></tr><hr/>
			<tr><td align="left">&loz; : 1848 </td></tr>
			<tr><td align="left">&dagger; : 1929 </td></tr>
		</table>>];

	F287 [shape=ellipse,label=" "];

	{rank=same;I785;I786};
	{rank=same;F287};
	{rank=same;I387;};

	I785 -> F287;
	I786 -> F287;
	F287 -> I387;
}