digraph G {
	edge [dir=none];

	I23401412 [shape=box,style="rounded",label=<
		<table border="0" cellborder="0">
			<tr><td>Oswald (Old Tut) Simpson &#9794;</td></tr>
		</table>>];
	I71901060 [shape=box,style="rounded",label=<
		<table border="0" cellborder="0">
			<tr><td>Edwina Happy Dinsdale  &#9792;</td></tr>
		</table>>];
	I77803984 [shape=box,style="rounded",label=<
		<table border="0" cellborder="0">
			<tr><td>Willard Hickman &#9794;</td></tr>
		</table>>];
	I65675459 [shape=box,style="rounded",label=<
		<table border="0" cellborder="0">
			<tr><td>Hutshing Th&eacute;odora &#9792;</td></tr>
		</table>>];
	I78515992 [shape=box,style="rounded",label=<
		<table border="0" cellborder="0">
			<tr><td>Twitta Simpson &#9792;</td></tr>
		</table>>];
	I53075920 [shape=box,style="rounded",label=<
		<table border="0" cellborder="0">
			<tr><td>Elrita Simpson &#9792;</td></tr>
		</table>>];
	I35650048 [shape=box,style="rounded,filled",label=<
		<table border="0" cellborder="0">
			<tr><td>Orville Simpson &#9794;</td></tr><hr/>
			<tr><td align="left">&loz; :  </td></tr>
			<tr><td align="left">&dagger; :  </td></tr>
		</table>>];
	I78931631 [shape=box,style="rounded",label=<
		<table border="0" cellborder="0">
			<tr><td>Bonita Simpson &#9792;</td></tr>
		</table>>];
	I60908184 [shape=box,style="rounded,filled",label=<
		<table border="0" cellborder="0">
			<tr><td>Yuma Hickman &#9792;</td></tr><hr/>
			<tr><td align="left">&loz; :  </td></tr>
			<tr><td align="left">&dagger; :  </td></tr>
		</table>>];
	I95497580 [shape=box,style="rounded",label=<
		<table border="0" cellborder="0">
			<tr><td>Zeke Hickman &#9794;</td></tr>
		</table>>];
	I98367560 [shape=box,style="rounded",label=<
		<table border="0" cellborder="0">
			<tr><td>Chet Simpson &#9794;</td></tr>
		</table>>];
	I10963340 [shape=box,style="rounded",label=<
		<table border="0" cellborder="0">
			<tr><td>William (Bill) Simpson &#9794;</td></tr><hr/>
			<tr><td align="left">&dagger; :  </td></tr>
		</table>>];
	I97611840 [shape=box,style="rounded",label=<
		<table border="0" cellborder="0">
			<tr><td>Hubert Simpson &#9794;</td></tr><hr/>
			<tr><td align="left">&dagger; :  </td></tr>
		</table>>];
	I48172709 [shape=box,style="rounded",label=<
		<table border="0" cellborder="0">
			<tr><td>Cyrius Simpson &#9794;</td></tr>
		</table>>];
	I95904710 [shape=box,style="rounded",label=<
		<table border="0" cellborder="0">
			<tr><td>Abraham J. Simpson &#9794;</td></tr><hr/>
			<tr><td align="left">&loz; : 15 juin 1927 </td></tr>
		</table>>];
	I6704584 [shape=box,style="rounded",label=<
		<table border="0" cellborder="0">
			<tr><td>Tyrone Simpson &#9794;</td></tr>
		</table>>];

	F76829178 [shape=ellipse,label=" "];
	F97153591 [shape=ellipse,label=" "];
	F98254624 [shape=ellipse,label=" "];

	{rank=same;I23401412;I71901060;I77803984;I65675459;};
	{rank=same;F76829178;F97153591;};
	{rank=same;I78515992;I53075920;I35650048;I78931631;I60908184;I95497580;};
	{rank=same;F98254624};
	{rank=same;I98367560;I10963340;I97611840;I48172709;I95904710;I6704584;};

	I23401412 -> F76829178;
	I71901060 -> F76829178;
	F76829178 -> I78515992;
	F76829178 -> I53075920;
	F76829178 -> I35650048;
	F76829178 -> I78931631;
	I77803984 -> F97153591;
	I65675459 -> F97153591;
	F97153591 -> I60908184;
	F97153591 -> I95497580;
	I35650048 -> F98254624;
	I60908184 -> F98254624;
	F98254624 -> I98367560;
	F98254624 -> I10963340;
	F98254624 -> I97611840;
	F98254624 -> I48172709;
	F98254624 -> I95904710;
	F98254624 -> I6704584;
}