digraph G {
	edge [dir=none];

	I40160223 [shape=box,style="rounded,filled",label=<
		<table border="0" cellborder="0">
			<tr><td>Jay Olsen &#9794;</td></tr>
		</table>>];
	I17686704 [shape=box,style="rounded,filled",label=<
		<table border="0" cellborder="0">
			<tr><td>Penelope Godd &#9792;</td></tr>
		</table>>];
	I17156652 [shape=box,style="rounded",label=<
		<table border="0" cellborder="0">
			<tr><td>Mona P&eacute;n&eacute;lope Olsen &#9792;</td></tr><hr/>
			<tr><td align="left">&loz; : 1917 </td></tr>
			<tr><td align="left">&dagger; : 2008 </td></tr>
		</table>>];

	F24305667 [shape=ellipse,label=" "];

	{rank=same;I40160223;I17686704};
	{rank=same;F24305667};
	{rank=same;I17156652;};

	I40160223 -> F24305667;
	I17686704 -> F24305667;
	F24305667 -> I17156652;
}