digraph G {
	edge [dir=none];

	I95904710 [shape=box,style="rounded",label=<
		<table border="0" cellborder="0">
			<tr><td>Abraham J. Simpson &#9794;</td></tr><hr/>
			<tr><td align="left">&loz; : 15 juin 1927 </td></tr>
		</table>>];
	I17156652 [shape=box,style="rounded",label=<
		<table border="0" cellborder="0">
			<tr><td>Mona P&eacute;n&eacute;lope Olsen &#9792;</td></tr><hr/>
			<tr><td align="left">&loz; : 1917 </td></tr>
			<tr><td align="left">&dagger; : 2008 </td></tr>
		</table>>];
	I98101039 [shape=box,style="rounded",label=<
		<table border="0" cellborder="0">
			<tr><td>Clancy Bouvier &#9794;</td></tr><hr/>
			<tr><td align="left">&dagger; :  </td></tr>
		</table>>];
	I70418658 [shape=box,style="rounded",label=<
		<table border="0" cellborder="0">
			<tr><td>Jacky Gurney &#9792;</td></tr>
		</table>>];
	I58568726 [shape=box,style="rounded,filled",label=<
		<table border="0" cellborder="0">
			<tr><td>Homer Simpson &#9794;</td></tr>
		</table>>];
	I27578062 [shape=box,style="rounded",label=<
		<table border="0" cellborder="0">
			<tr><td>Selma Bouvier &#9792;</td></tr><hr/>
			<tr><td align="left">&loz; :  </td></tr>
		</table>>];
	I2651652 [shape=box,style="rounded,filled",label=<
		<table border="0" cellborder="0">
			<tr><td>Marge Bouvier &#9792;</td></tr><hr/>
			<tr><td align="left">&loz; :  </td></tr>
		</table>>];
	I68216130 [shape=box,style="rounded",label=<
		<table border="0" cellborder="0">
			<tr><td>Patty Bouvier &#9792;</td></tr><hr/>
			<tr><td align="left">&loz; :  </td></tr>
		</table>>];
	I75654767 [shape=box,style="rounded",label=<
		<table border="0" cellborder="0">
			<tr><td>Lisa Simpson &#9792;</td></tr><hr/>
			<tr><td align="left">&loz; :  </td></tr>
		</table>>];
	I97075808 [shape=box,style="rounded",label=<
		<table border="0" cellborder="0">
			<tr><td>Maggie Simpson &#9792;</td></tr><hr/>
			<tr><td align="left">&loz; :  </td></tr>
		</table>>];
	I48191051 [shape=box,style="rounded",label=<
		<table border="0" cellborder="0">
			<tr><td>Bart Simpson &#9794;</td></tr><hr/>
			<tr><td align="left">&loz; :  </td></tr>
		</table>>];

	F91244144 [shape=ellipse,label=" "];
	F36054792 [shape=ellipse,label=" "];
	F5199872 [shape=ellipse,label=" "];

	{rank=same;I95904710;I17156652;I98101039;I70418658;};
	{rank=same;F91244144;F36054792;};
	{rank=same;I58568726;I27578062;I2651652;I68216130;};
	{rank=same;F5199872};
	{rank=same;I75654767;I97075808;I48191051;};

	I95904710 -> F91244144;
	I17156652 -> F91244144;
	F91244144 -> I58568726;
	I98101039 -> F36054792;
	I70418658 -> F36054792;
	F36054792 -> I27578062;
	F36054792 -> I2651652;
	F36054792 -> I68216130;
	I58568726 -> F5199872;
	I2651652 -> F5199872;
	F5199872 -> I75654767;
	F5199872 -> I97075808;
	F5199872 -> I48191051;
}